JUGADOR;BASE;ESCOLTA;ALERO;ALA;PIVOT;
Jiri Pecha;--;102;95;--;--;
Benjamin Gillatt;--;--;110;117;--;
Kamil Eleszynski;--;--;--;149;160;
Attila Garamvolgyi;--;120;103;--;--;
Donatas Pilikonis;--;--;--;--;183;
Zanas Bacionis;--;--;--;135;144;
Vitaliy Polunin;--;--;114;129;134;
Stefan Endres;--;--;--;137;145;
Wojciech Stanczyk;124;--;--;--;--;
Milos Pelnar;138;130;--;--;--;
Riho Ule;--;130;116;--;--;
Justus Grunwald;--;107;102;--;--;
Pere Olmo;105;--;--;--;--;
Vuksan Vujovic;106;--;--;--;--;
Juan Aranzana;--;120;107;--;--;
Jose Pindado;--;125;111;--;--;
Antonio Maldonado;--;113;101;--;--;
Luis Grau;--;--;--;137;141;
Reinolts Asentins;--;101;99;--;--;
Ninoslav Dimitrijevic;118;--;--;--;--;
